@startuml NA17p2sujet30
hide circle

skinparam class {
    BorderColor Black
    ArrowColor Black
}

package "Payment" #F0E68C{
    class CreditCard {
        serialNumber : string {UNIQUE}
        startDate: date
        endDate : date
    }

    class PrepaidCard {
        serialNumber : string {UNIQUE}
        startingAmount: float
        currentAmount: float
        startDate: date
        endDate: date
    }
}

package "Users" #99B2DD {
    class User {
        name: string
        firstname: string
        mail: string {UNIQUE}
        password: str
        birthdate: date
        adminPriviledge: bool 
        newsletter_subscription : bool
        age()
        downloadApp()
        downloadRessource()
        addReview()
        addTerminal()
        removeTerminal()
    } 

    class Editor {
        name: string {UNIQUE}
        contact: string {UNIQUE}
        url: string {UNIQUE}
        addApplication()
        addRessource()
    }
}


package "Store" #F9DEC9 {
    class Application {
        title: string {UNIQUE}
        costOfDownload: float
        age_restriction[0..1]: int    
    }

    class Ressource {
        title: string {UNIQUE}
        age_restriction[0..1]: int
        costOfDownload: float
    }
    
    class Subscription {
        startDate: date
        endDate: date
        periodicity: {month, trimester, year}
        autoDebit[0..1]: bool
        nbMonthDebit[0..1]: integer
    }

    class Review {
        mark: [0..5]
        title: str
        content: text
    }
}


package "Terminal" #FFB6C1 {
    class Device {
        serialNumber: string {UNIQUE}
        commercialName : string
    }

    class DeviceType {
        type: string
    }

    class Constructor {
        name: string {UNIQUE}
        country_origin: str
    }

    class OperatingSystem {
        name: string {UNIQUE}
        version: float
    }
}

User "*" -- "*" Application
User "*" -- "*" Ressource
User "0..1" - "1..5" Device: has >
User "1" -up- "*" CreditCard : has >
User "1" -up- "*" PrepaidCard :has >

Users -[hidden] Terminal

Editor "1" --- "*" Application: upload >
Editor "1" -- "*" Ressource: upload >

Application "1" -- "*" Review: has >
Application "1" -- "0..1" Subscription: has >
Application "*" -- "1..*" OperatingSystem
Application "1" - "*" Ressource: "   possède   " 

Device "*" -- "1" DeviceType: is-a >
Device "*" - "1" Constructor: < build 
Device "*" --- "1" OperatingSystem: run on > 

OperatingSystem "*" - "1" Constructor: < build

@enduml